…
Another source of naming differences may be that in the early days,
there were no strict cutoffs for difficulty names. Therefore, a map with
a difficulty of 3.99 may be named “Hard” *or* “Insane” at the discretion
of the mapper.

``` r
# ascending difficulty
osu %>% select(song, difficulty) %>%
  arrange(difficulty)
```

    ## # A tibble: 50 x 2
    ##    song                          difficulty
    ##    <chr>                              <dbl>
    ##  1 I Want You                          3.09
    ##  2 A Sweet Smile                       3.11
    ##  3 Bonetrousle                         3.18
    ##  4 &Z (TV size)                        3.24
    ##  5 All In All                          3.24
    ##  6 The Bad Thing                       3.34
    ##  7 MONSTER                             3.39
    ##  8 Donna Toki mo Zutto (TV Size)       3.42
    ##  9 IGNITE (TV size ver.)               3.43
    ## 10 MOBILE SUIT (W-REC MIX)             3.43
    ## # ... with 40 more rows

``` r
# descending difficulty
osu %>% select(song, difficulty) %>%
  arrange(desc(difficulty))
```

    ## # A tibble: 50 x 2
    ##    song                               difficulty
    ##    <chr>                                   <dbl>
    ##  1 Yuuki no Reason                          4.74
    ##  2 MOBILE SUIT (W-REC MIX)                  4.64
    ##  3 BRAVE JEWEL (TV Size)                    4.4 
    ##  4 Paintings? Oh, yeah                      4.26
    ##  5 Bull's eye                               4.23
    ##  6 &Z (TV size)                             4.2 
    ##  7 Sentimental Love (TV Size)               4.14
    ##  8 Sentimental Love (TV Size)               4.14
    ##  9 Shinkai Shoujo                           4.13
    ## 10 Shingeki st-hrn-egt20130629 Kyojin       4.08
    ## # ... with 40 more rows
…
